\relax 
\providecommand\babel@aux[2]{}
\@nameuse{bbl@beforestart}
\providecommand\hyper@newdestlabel[2]{}
\providecommand\HyField@AuxAddToFields[1]{}
\providecommand\HyField@AuxAddToCoFields[2]{}
\ifx\qr@savematrix\@undefined\def\qr@savematrix{\begingroup\let\do\@makeother\dospecials\catcode`\{=1\catcode`\}=2\relax \qr@savematrix@int}\def\qr@savematrix@int#1#2#3#4{\endgroup}\fi
\babel@aux{french}{}
\@writefile{toc}{\contentsline {section}{\numberline {1}Faire des calculs}{1}{section.1}\protected@file@percent }
\@writefile{toc}{\contentsline {subsection}{\numberline {1.1}Calculs entre les cellules}{1}{subsection.1.1}\protected@file@percent }
\providecommand*\caption@xref[2]{\@setref\relax\@undefined{#1}}
\newlabel{calcul1}{{1a}{1}{\relax }{figure.caption.1}{}}
\newlabel{calcul1@cref}{{[subfigure][1][1]1a}{[1][1][]1}{}{}{}}
\newlabel{sub@calcul1}{{a}{1}{\relax }{figure.caption.1}{}}
\newlabel{sub@calcul1@cref}{{[subfigure][1][1]1a}{[1][1][]1}{}{}{}}
\newlabel{calcul2}{{1b}{1}{\relax }{figure.caption.1}{}}
\newlabel{calcul2@cref}{{[subfigure][2][1]1b}{[1][1][]1}{}{}{}}
\newlabel{sub@calcul2}{{b}{1}{\relax }{figure.caption.1}{}}
\newlabel{sub@calcul2@cref}{{[subfigure][2][1]1b}{[1][1][]1}{}{}{}}
\@writefile{lof}{\contentsline {figure}{\numberline {1}{\ignorespaces \relax }}{1}{figure.caption.1}\protected@file@percent }
\@writefile{toc}{\contentsline {subsection}{\numberline {1.2}Refaire le même calcul sur les lignes suivantes}{1}{subsection.1.2}\protected@file@percent }
\newlabel{iteration1}{{2a}{1}{\relax }{figure.caption.2}{}}
\newlabel{iteration1@cref}{{[subfigure][1][2]2a}{[1][1][]1}{}{}{}}
\newlabel{sub@iteration1}{{a}{1}{\relax }{figure.caption.2}{}}
\newlabel{sub@iteration1@cref}{{[subfigure][1][2]2a}{[1][1][]1}{}{}{}}
\newlabel{iteration2}{{2b}{1}{\relax }{figure.caption.2}{}}
\newlabel{iteration2@cref}{{[subfigure][2][2]2b}{[1][1][]1}{}{}{}}
\newlabel{sub@iteration2}{{b}{1}{\relax }{figure.caption.2}{}}
\newlabel{sub@iteration2@cref}{{[subfigure][2][2]2b}{[1][1][]1}{}{}{}}
\@writefile{lof}{\contentsline {figure}{\numberline {2}{\ignorespaces \relax }}{1}{figure.caption.2}\protected@file@percent }
\@writefile{toc}{\contentsline {section}{\numberline {2}Tracer un graphique}{1}{section.2}\protected@file@percent }
\@writefile{toc}{\contentsline {subsection}{\numberline {2.1}sélection des données}{1}{subsection.2.1}\protected@file@percent }
\@writefile{lof}{\contentsline {figure}{\numberline {3}{\ignorespaces \relax }}{1}{figure.3}\protected@file@percent }
\newlabel{selection}{{3}{1}{\relax }{figure.3}{}}
\newlabel{selection@cref}{{[figure][3][]3}{[1][1][]1}{}{}{}}
\@writefile{toc}{\contentsline {subsection}{\numberline {2.2}Réglages du graphique}{1}{subsection.2.2}\protected@file@percent }
\@writefile{lof}{\contentsline {figure}{\numberline {4}{\ignorespaces \relax }}{2}{figure.caption.6}\protected@file@percent }
\newlabel{barre_menu}{{4}{2}{\relax }{figure.caption.6}{}}
\newlabel{barre_menu@cref}{{[figure][4][]4}{[1][2][]2}{}{}{}}
\@writefile{toc}{\contentsline {subsection}{\numberline {2.3}Ajouter la courbe de tendance}{2}{subsection.2.3}\protected@file@percent }
\@writefile{toc}{\contentsline {subsection}{\numberline {2.4}Prolonger la courbe de tendance et afficher l’origine du repère}{2}{subsection.2.4}\protected@file@percent }
\@writefile{toc}{\contentsline {subsubsection}{\numberline {2.4.1}Afficher l’origine du repère}{2}{subsubsection.2.4.1}\protected@file@percent }
\@writefile{toc}{\contentsline {subsubsection}{\numberline {2.4.2}Prolonger la courbe}{2}{subsubsection.2.4.2}\protected@file@percent }
\newlabel{LastPage}{{2.4.2}{2}{Prolonger la courbe}{page.2}{}}
\gdef\lastpage@lastpage{2}
\gdef\lastpage@lastpageHy{2}
\gdef \@abspage@last{2}
