\relax 
\providecommand\hyper@newdestlabel[2]{}
\providecommand\HyperFirstAtBeginDocument{\AtBeginDocument}
\HyperFirstAtBeginDocument{\ifx\hyper@anchor\@undefined
\global\let\oldnewlabel\newlabel
\gdef\newlabel#1#2{\newlabelxx{#1}#2}
\gdef\newlabelxx#1#2#3#4#5#6{\oldnewlabel{#1}{{#2}{#3}}}
\AtEndDocument{\ifx\hyper@anchor\@undefined
\let\newlabel\oldnewlabel
\fi}
\fi}
\global\let\hyper@last\relax 
\gdef\HyperFirstAtBeginDocument#1{#1}
\providecommand\HyField@AuxAddToFields[1]{}
\providecommand\HyField@AuxAddToCoFields[2]{}
\providecommand\babel@aux[2]{}
\@nameuse{bbl@beforestart}
\pgfsyspdfmark {pgfid3}{222822}{484966}
\pgfsyspdfmark {pgfid2}{0}{16782118}
\babel@aux{french}{}
\pgfsyspdfmark {pgfid1}{4784128}{10069271}
\@writefile{nav}{\headcommand {\slideentry {0}{0}{1}{1/1}{}{0}}}
\@writefile{nav}{\headcommand {\beamer@framepages {1}{1}}}
\pgfsyspdfmark {pgfid5}{222822}{484966}
\pgfsyspdfmark {pgfid4}{0}{16782118}
\@writefile{nav}{\headcommand {\slideentry {0}{0}{2}{2/2}{}{0}}}
\@writefile{nav}{\headcommand {\beamer@framepages {2}{2}}}
\pgfsyspdfmark {pgfid7}{222822}{484966}
\pgfsyspdfmark {pgfid6}{0}{16782118}
\@writefile{nav}{\headcommand {\slideentry {0}{0}{3}{3/3}{}{0}}}
\@writefile{nav}{\headcommand {\beamer@framepages {3}{3}}}
\pgfsyspdfmark {pgfid9}{222822}{484966}
\pgfsyspdfmark {pgfid8}{0}{16782118}
\@writefile{nav}{\headcommand {\slideentry {0}{0}{4}{4/4}{}{0}}}
\@writefile{nav}{\headcommand {\beamer@framepages {4}{4}}}
\pgfsyspdfmark {pgfid11}{222822}{484966}
\pgfsyspdfmark {pgfid10}{0}{16782118}
\@writefile{nav}{\headcommand {\slideentry {0}{0}{5}{5/5}{}{0}}}
\@writefile{nav}{\headcommand {\beamer@framepages {5}{5}}}
\pgfsyspdfmark {pgfid13}{222822}{484966}
\pgfsyspdfmark {pgfid12}{0}{16782118}
\pgfsyspdfmark {pgfid15}{222822}{484966}
\pgfsyspdfmark {pgfid14}{0}{16782118}
\pgfsyspdfmark {pgfid17}{222822}{484966}
\pgfsyspdfmark {pgfid16}{0}{16782118}
\@writefile{nav}{\headcommand {\slideentry {0}{0}{6}{6/8}{}{0}}}
\@writefile{nav}{\headcommand {\beamer@framepages {6}{8}}}
\pgfsyspdfmark {pgfid19}{222822}{484966}
\pgfsyspdfmark {pgfid18}{0}{16782118}
\pgfsyspdfmark {pgfid21}{222822}{484966}
\pgfsyspdfmark {pgfid20}{0}{16782118}
\pgfsyspdfmark {pgfid23}{222822}{484966}
\pgfsyspdfmark {pgfid22}{0}{16782118}
\pgfsyspdfmark {pgfid25}{222822}{484966}
\pgfsyspdfmark {pgfid24}{0}{16782118}
\pgfsyspdfmark {pgfid27}{222822}{484966}
\pgfsyspdfmark {pgfid26}{0}{16782118}
\@writefile{nav}{\headcommand {\slideentry {0}{0}{7}{9/13}{}{0}}}
\@writefile{nav}{\headcommand {\beamer@framepages {9}{13}}}
\@writefile{nav}{\headcommand {\beamer@partpages {1}{13}}}
\@writefile{nav}{\headcommand {\beamer@subsectionpages {1}{13}}}
\@writefile{nav}{\headcommand {\beamer@sectionpages {1}{13}}}
\@writefile{nav}{\headcommand {\beamer@documentpages {13}}}
\@writefile{nav}{\headcommand {\gdef \inserttotalframenumber {7}}}
\gdef \@abspage@last{13}
