\BOOKMARK [1][-]{section*.1}{\376\377\000\300\000\040\000r\000e\000v\000o\000i\000r}{}% 1
\BOOKMARK [1][-]{section*.2}{\376\377\000j\000e\000\040\000s\000a\000i\000s\000\040\000f\000a\000i\000r\000e\000\040\000\050\000s\000a\000n\000s\000\040\000l\000a\000\040\000c\000o\000r\000r\000e\000c\000t\000i\000o\000n\000\051}{}% 2
\BOOKMARK [1][-]{section*.3}{\376\377\000j\000e\000\040\000m\000'\000a\000p\000p\000r\000o\000p\000r\000i\000e\000\040\000l\000e\000\040\000c\000o\000u\000r\000s}{}% 3
